{
  "images" : [
    {
      "filename" : "ic_dt_pending_completed@1x.png",
      "idiom" : "universal",
      "scale" : "1x"
    },
    {
      "appearances" : [
        {
          "appearance" : "luminosity",
          "value" : "dark"
        }
      ],
      "filename" : "Group 10198.png",
      "idiom" : "universal",
      "scale" : "1x"
    },
    {
      "filename" : "ic_dt_pending_completed@2x.png",
      "idiom" : "universal",
      "scale" : "2x"
    },
    {
      "appearances" : [
        {
          "appearance" : "luminosity",
          "value" : "dark"
        }
      ],
      "filename" : "Group 10198-1.png",
      "idiom" : "universal",
      "scale" : "2x"
    },
    {
      "filename" : "ic_dt_pending_completed@3x.png",
      "idiom" : "universal",
      "scale" : "3x"
    },
    {
      "appearances" : [
        {
          "appearance" : "luminosity",
          "value" : "dark"
        }
      ],
      "filename" : "Group 10198-2.png",
      "idiom" : "universal",
      "scale" : "3x"
    }
  ],
  "info" : {
    "author" : "xcode",
    "version" : 1
  }
}
