{
  "images" : [
    {
      "filename" : "ic_dt_verified_processed@1x.png",
      "idiom" : "universal",
      "scale" : "1x"
    },
    {
      "appearances" : [
        {
          "appearance" : "luminosity",
          "value" : "dark"
        }
      ],
      "filename" : "Group 10182.png",
      "idiom" : "universal",
      "scale" : "1x"
    },
    {
      "filename" : "ic_dt_verified_processed@2x.png",
      "idiom" : "universal",
      "scale" : "2x"
    },
    {
      "appearances" : [
        {
          "appearance" : "luminosity",
          "value" : "dark"
        }
      ],
      "filename" : "Group 10182-1.png",
      "idiom" : "universal",
      "scale" : "2x"
    },
    {
      "filename" : "ic_dt_verified_processed@3x.png",
      "idiom" : "universal",
      "scale" : "3x"
    },
    {
      "appearances" : [
        {
          "appearance" : "luminosity",
          "value" : "dark"
        }
      ],
      "filename" : "Group 10182-2.png",
      "idiom" : "universal",
      "scale" : "3x"
    }
  ],
  "info" : {
    "author" : "xcode",
    "version" : 1
  }
}
